{
  "build": {
    "arduino": {
      "ldscript": "eagle.flash.16m14m.ld"
    },
    "core": "esp8266",
    "extra_flags": "-DESP8266 -DARDUINO_ARCH_ESP8266 -DARDUINO_ESP8266_WEMOS_D1MINIPRO",
    "f_cpu": "160000000L",
    "f_flash": "40000000L",
    "flash_mode": "dio",
    "mcu": "esp8266",
    "variant": "d1_mini"
  },
  "connectivity": [
    "wifi"
  ],
  "frameworks": [
    "arduino",
    "simba",
    "freeRTOS",
    "nonOS"
  ],
  "name": "Huge-12",
  "upload": {
    "maximum_ram_size": 81920,
    "maximum_size": 16777216,
    "require_upload_port": true,
    "resetmethod": "nodemcu",
    "speed": 921600
  },
  "url": "http://www.OS-Q.com/H08/Huge",
  "vendor": "OS-Q"
}
